…
cpi_changes_graph %>%
  filter(Date>="2016-01-01") %>% 
  group_by(Component) %>% 
  mutate(
    max_cpi = max(YoY)
  )

## # A tibble: 3,381 × 5
## # Groups:   Component [49]
##    Date       Component           YoY Neg   max_cpi
##    <date>     <chr>             <dbl> <lgl>   <dbl>
##  1 2016-01-01 CUSR0000SETG01 -0.0192  TRUE   0.246 
##  2 2016-01-01 CUSR0000SEFW    0.0102  FALSE  0.0289
##  3 2016-01-01 CUSR0000SEFX    0.0156  FALSE  0.0336
##  4 2016-01-01 CUSR0000SAF116  0.0120  FALSE  0.0298
##  5 2016-01-01 CPIAUCSL        0.0124  FALSE  0.0538
##  6 2016-01-01 CPIAPPSL       -0.00896 TRUE   0.0557
##  7 2016-01-01 CUSR0000SAF111  0.00355 FALSE  0.0329
##  8 2016-01-01 CUSR0000SEFP01 -0.0262  TRUE   0.0395
##  9 2016-01-01 CUSR0000SEFJ   -0.0297  TRUE   0.0568
## 10 2016-01-01 CUSR0000SEHF01 -0.0231  TRUE   0.0524
## # … with 3,371 more rows
…
