…
#calculate yearly returns
myStocks_returns_annual <- myStocks %>%
  group_by(symbol) %>%
  tq_transmute(select     = adjusted, 
               mutate_fun = periodReturn, 
               period     = "yearly", 
               type       = "arithmetic",
               col_rename = "yearly_returns",
               cols = c(nested.col))

myStocks_returns_monthly

## # A tibble: 7,741 × 3
## # Groups:   symbol [31]
##    symbol date       monthly_returns
##    <chr>  <date>               <dbl>
##  1 MMM    2000-01-31        -0.00795
##  2 MMM    2000-02-29        -0.0520 
##  3 MMM    2000-03-31         0.00425
##  4 MMM    2000-04-28        -0.0219 
##  5 MMM    2000-05-31        -0.00368
##  6 MMM    2000-06-30        -0.0321 
##  7 MMM    2000-07-31         0.0851 
##  8 MMM    2000-08-31         0.0390 
##  9 MMM    2000-09-29        -0.0203 
## 10 MMM    2000-10-31         0.0604 
## # … with 7,731 more rows
Create a table where you summarise monthly returns for each of the stocks and SPY; min, max, median, mean, SD.

monthly_stock_performance <- myStocks_returns_monthly %>%
  select(symbol,monthly_returns) %>%
  group_by(symbol) %>%
  summarise(mean_monthly_return=mean(monthly_returns),
            median_monthly_return=median(monthly_returns),
            sd_monthly_return=sd(monthly_returns),
            min_monthly_return=min(monthly_returns),
            max_monthly_return=max(monthly_returns)) %>%
  arrange(-mean_monthly_return)

monthly_stock_performance

## # A tibble: 31 × 6
##    symbol mean_monthly_return median_monthly_… sd_monthly_retu… min_monthly_ret…
##    <chr>                <dbl>            <dbl>            <dbl>            <dbl>
##  1 AAPL                0.0268           0.0332           0.115            -0.577
##  2 CRM                 0.0262           0.0205           0.110            -0.360
##  3 V                   0.0199           0.0256           0.0660           -0.196
##  4 UNH                 0.0192           0.0232           0.0700           -0.306
##  5 NKE                 0.0164           0.0169           0.0758           -0.375
##  6 DOW                 0.0155           0.0311           0.109            -0.276
##  7 CAT                 0.0143           0.0141           0.0898           -0.353
##  8 BA                  0.0126           0.0165           0.0925           -0.458
##  9 MSFT                0.0114           0.0177           0.0820           -0.344
## 10 GS                  0.0111           0.0163           0.0926           -0.275
## # … with 21 more rows, and 1 more variable: max_monthly_return <dbl>
…
