…
Additionally, we create a new variable in the dataframe yrbss, called physical_3plus , which will be yes if they are physically active for at least 3 days a week, and no otherwise. We also calculate the number and % of those who are and are not active for more than 3 days using the count() function.

yrbss_physical_3plus <- yrbss %>%
  filter(!is.na(physically_active_7d)) %>%
  mutate(physical_3plus = ifelse(physically_active_7d>=3, "yes", "no"),
         physical_3plus = factor(physical_3plus,levels=c("yes","no"))) 

yrbss_physical_3plus

## # A tibble: 13,310 × 14
##      age gender grade hispanic race    height weight helmet_12m text_while_driv…
##    <int> <chr>  <chr> <chr>    <chr>    <dbl>  <dbl> <chr>      <chr>           
##  1    14 female 9     not      Black …  NA      NA   never      0               
##  2    14 female 9     not      Black …  NA      NA   never      <NA>            
##  3    15 female 9     hispanic Native…   1.73   84.4 never      30              
##  4    15 female 9     not      Black …   1.6    55.8 never      0               
##  5    15 female 9     not      Black …   1.5    46.7 did not r… did not drive   
##  6    15 female 9     not      Black …   1.57   67.1 did not r… did not drive   
##  7    15 female 9     not      Black …   1.65  132.  did not r… <NA>            
##  8    14 male   9     not      Black …   1.88   71.2 never      <NA>            
##  9    15 male   9     not      Black …   1.75   63.5 never      <NA>            
## 10    15 male   10    not      Black …   1.37   97.1 did not r… <NA>            
## # … with 13,300 more rows, and 5 more variables: physically_active_7d <int>,
## #   hours_tv_per_school_day <chr>, strength_training_7d <int>,
## #   school_night_hours_sleep <chr>, physical_3plus <fct>
…
